…
franchise <- function(name) {
  if (is.null(name)){
  return(franchise_list)
  }else if (is.character(name)){
  return(franchise_list %>% 
           filter(fullName == name | teamAbbrev == name | teamCommonName == name |
                    teamPlaceName == name))
  }else
  return(franchise_list %>% filter(mostRecentTeamId == name))
}
#try to use function franchise
franchise(NULL)
```

    ## # A tibble: 39 x 8
    ##       id firstSeasonId fullName         lastSeasonId mostRecentTeamId teamAbbrev
    ##    <int>         <int> <chr>                   <int>            <int> <chr>     
    ##  1     1      19171918 Montréal Canadi…           NA                8 MTL       
    ##  2     2      19171918 Montreal Wander…     19171918               41 MWN       
    ##  3     3      19171918 St. Louis Eagles     19341935               45 SLE       
    ##  4     4      19191920 Hamilton Tigers      19241925               37 HAM       
    ##  5     5      19171918 Toronto Maple L…           NA               10 TOR       
    ##  6     6      19241925 Boston Bruins              NA                6 BOS       
    ##  7     7      19241925 Montreal Maroons     19371938               43 MMR       
    ##  8     8      19251926 Brooklyn Americ…     19411942               51 BRK       
    ##  9     9      19251926 Philadelphia Qu…     19301931               39 QUA       
    ## 10    10      19261927 New York Rangers           NA                3 NYR       
    ## # … with 29 more rows, and 2 more variables: teamCommonName <chr>,
    ## #   teamPlaceName <chr>
…
``` r
team_totals(NULL)
```

    ## # A tibble: 105 x 30
    ##       id activeFranchise firstSeasonId franchiseId gameTypeId gamesPlayed
    ##    <int>           <int>         <int>       <int>      <int>       <int>
    ##  1     1               1      19821983          23          2        2993
    ##  2     2               1      19821983          23          3         257
    ##  3     3               1      19721973          22          2        3788
    ##  4     4               1      19721973          22          3         309
    ##  5     5               1      19261927          10          2        6560
    ##  6     6               1      19261927          10          3         518
    ##  7     7               1      19671968          16          3         449
    ##  8     8               1      19671968          16          2        4171
    ##  9     9               1      19671968          17          2        4171
    ## 10    10               1      19671968          17          3         391
    ## # … with 95 more rows, and 24 more variables: goalsAgainst <int>,
    ## #   goalsFor <int>, homeLosses <int>, homeOvertimeLosses <int>, homeTies <int>,
    ## #   homeWins <int>, lastSeasonId <int>, losses <int>, overtimeLosses <int>,
    ## #   penaltyMinutes <int>, pointPctg <dbl>, points <int>, roadLosses <int>,
    ## #   roadOvertimeLosses <int>, roadTies <int>, roadWins <int>,
    ## #   shootoutLosses <int>, shootoutWins <int>, shutouts <int>, teamId <int>,
    ## #   teamName <chr>, ties <int>, triCode <chr>, wins <int>
…
``` r
season(NULL)
```

    ## # A tibble: 39 x 57
    ##       id fewestGoals fewestGoalsAgain… fewestGoalsAgainstS… fewestGoalsSeasons  
    ##    <int>       <int>             <int> <chr>                <chr>               
    ##  1     1         174               164 2003-04 (82)         2010-11 (82)        
    ##  2     2         170               190 1975-76 (80)         1972-73 (78)        
    ##  3     3         150               177 1970-71 (78)         1954-55 (70)        
    ##  4     4         173               164 1973-74 (78)         1967-68 (74)        
    ##  5     5         182               188 1997-98 (82)         1969-70 (76)        
    ##  6     6         147               172 1952-53 (70)         1955-56 (70)        
    ##  7     7         157               175 1998-99 (82)         2013-14 (82)        
    ##  8     8         155               131 1955-56 (70)         1952-53 (70)        
    ##  9     9         191               179 1998-99 (82)         1995-96 (82), 2019-…
    ## 10    10         147               131 1953-54 (70)         1954-55 (70)        
    ## # … with 29 more rows, and 52 more variables: fewestLosses <int>,
    ## #   fewestLossesSeasons <chr>, fewestPoints <int>, fewestPointsSeasons <chr>,
    ## #   fewestTies <int>, fewestTiesSeasons <chr>, fewestWins <int>,
    ## #   fewestWinsSeasons <chr>, franchiseId <int>, franchiseName <chr>,
    ## #   homeLossStreak <int>, homeLossStreakDates <chr>, homePointStreak <int>,
    ## #   homePointStreakDates <chr>, homeWinStreak <int>, homeWinStreakDates <chr>,
    ## #   homeWinlessStreak <int>, homeWinlessStreakDates <chr>, lossStreak <int>,
    ## #   lossStreakDates <chr>, mostGameGoals <int>, mostGameGoalsDates <chr>,
    ## #   mostGoals <int>, mostGoalsAgainst <int>, mostGoalsAgainstSeasons <chr>,
…
#try to use function goalie
goalie(1)
```

    ## # A tibble: 38 x 29
    ##       id activePlayer firstName franchiseId franchiseName gameTypeId gamesPlayed
    ##    <int> <lgl>        <chr>           <int> <chr>              <int>       <int>
    ##  1  1182 FALSE        Ken                 1 Montréal Can…          2         397
    ##  2   414 FALSE        Stephane            1 Montréal Can…          2           2
    ##  3   437 FALSE        Jeff                1 Montréal Can…          2         161
    ##  4   450 FALSE        Brian               1 Montréal Can…          2         141
    ##  5   457 FALSE        Denis               1 Montréal Can…          2          86
    ##  6   469 FALSE        Pat                 1 Montréal Can…          2          40
    ##  7   511 FALSE        Roland              1 Montréal Can…          2           9
    ##  8   527 FALSE        Andy                1 Montréal Can…          2          42
    ##  9   549 FALSE        Lorne               1 Montréal Can…          2          47
    ## 10   559 FALSE        Abbie               1 Montréal Can…          2           1
    ## # … with 28 more rows, and 22 more variables: lastName <chr>, losses <int>,
    ## #   mostGoalsAgainstDates <chr>, mostGoalsAgainstOneGame <int>,
    ## #   mostSavesDates <chr>, mostSavesOneGame <int>, mostShotsAgainstDates <chr>,
    ## #   mostShotsAgainstOneGame <int>, mostShutoutsOneSeason <int>,
    ## #   mostShutoutsSeasonIds <chr>, mostWinsOneSeason <int>,
    ## #   mostWinsSeasonIds <chr>, overtimeLosses <int>, playerId <int>,
    ## #   positionCode <chr>, rookieGamesPlayed <int>, rookieShutouts <int>,
    ## #   rookieWins <int>, seasons <int>, shutouts <int>, ties <int>, wins <int>

``` r
goalie(NULL)
```

    ## # A tibble: 1,078 x 29
    ##       id activePlayer firstName franchiseId franchiseName gameTypeId gamesPlayed
    ##    <int> <lgl>        <chr>           <int> <chr>              <int>       <int>
    ##  1   235 FALSE        Don                15 Dallas Stars           2         315
    ##  2   236 FALSE        Bob                28 Arizona Coyo…          2         281
    ##  3   237 FALSE        Tony               11 Chicago Blac…          2         873
    ##  4   238 FALSE        Grant              25 Edmonton Oil…          2         423
    ##  5   239 FALSE        Ron                16 Philadelphia…          2         489
    ##  6   240 FALSE        Curtis             18 St. Louis Bl…          2         280
    ##  7   241 FALSE        Olie               24 Washington C…          2         711
    ##  8   242 FALSE        Mike               18 St. Louis Bl…          2         347
    ##  9   243 FALSE        Kirk               20 Vancouver Ca…          2         516
    ## 10   244 FALSE        Gilles             13 Cleveland Ba…          2         250
    ## # … with 1,068 more rows, and 22 more variables: lastName <chr>, losses <int>,
    ## #   mostGoalsAgainstDates <chr>, mostGoalsAgainstOneGame <int>,
    ## #   mostSavesDates <chr>, mostSavesOneGame <int>, mostShotsAgainstDates <chr>,
    ## #   mostShotsAgainstOneGame <int>, mostShutoutsOneSeason <int>,
    ## #   mostShutoutsSeasonIds <chr>, mostWinsOneSeason <int>,
    ## #   mostWinsSeasonIds <chr>, overtimeLosses <int>, playerId <int>,
    ## #   positionCode <chr>, rookieGamesPlayed <int>, rookieShutouts <int>,
    ## #   rookieWins <int>, seasons <int>, shutouts <int>, ties <int>, wins <int>
…
#try to use function skater
skater(1)
```

    ## # A tibble: 800 x 31
    ##       id activePlayer assists firstName franchiseId franchiseName     gameTypeId
    ##    <int> <lgl>          <int> <chr>           <int> <chr>                  <int>
    ##  1 17199 FALSE              0 Reg                 1 Montréal Canadie…          2
    ##  2 17223 FALSE              2 Art                 1 Montréal Canadie…          2
    ##  3 17272 FALSE              0 Dave                1 Montréal Canadie…          2
    ##  4 17351 FALSE              0 Ossie               1 Montréal Canadie…          2
    ##  5 17389 FALSE              0 Ron                 1 Montréal Canadie…          2
    ##  6 17440 FALSE              0 Jimmy               1 Montréal Canadie…          2
    ##  7 17484 FALSE              0 Max                 1 Montréal Canadie…          2
    ##  8 17508 FALSE              0 Bob                 1 Montréal Canadie…          2
    ##  9 17544 FALSE              0 Garry               1 Montréal Canadie…          2
    ## 10 17623 FALSE              0 Conrad              1 Montréal Canadie…          2
    ## # … with 790 more rows, and 24 more variables: gamesPlayed <int>, goals <int>,
    ## #   lastName <chr>, mostAssistsGameDates <chr>, mostAssistsOneGame <int>,
    ## #   mostAssistsOneSeason <int>, mostAssistsSeasonIds <chr>,
    ## #   mostGoalsGameDates <chr>, mostGoalsOneGame <int>, mostGoalsOneSeason <int>,
    ## #   mostGoalsSeasonIds <chr>, mostPenaltyMinutesOneSeason <int>,
    ## #   mostPenaltyMinutesSeasonIds <chr>, mostPointsGameDates <chr>,
    ## #   mostPointsOneGame <int>, mostPointsOneSeason <int>,
    ## #   mostPointsSeasonIds <chr>, penaltyMinutes <int>, playerId <int>,
    ## #   points <int>, positionCode <chr>, rookieGamesPlayed <int>,
    ## #   rookiePoints <int>, seasons <int>

``` r
skater(NULL)
```

    ## # A tibble: 17,209 x 31
    ##       id activePlayer assists firstName franchiseId franchiseName     gameTypeId
    ##    <int> <lgl>          <int> <chr>           <int> <chr>                  <int>
    ##  1 16888 FALSE            417 George              5 Toronto Maple Le…          2
    ##  2 16889 FALSE              0 Billy               2 Montreal Wandere…          2
    ##  3 16890 FALSE            794 Johnny              6 Boston Bruins              2
    ##  4 16891 FALSE            712 Jean                1 Montréal Canadie…          2
    ##  5 16892 FALSE           1111 Ray                 6 Boston Bruins              2
    ##  6 16893 FALSE             33 Harold              9 Philadelphia Qua…          2
    ##  7 16894 FALSE             13 Herb                9 Philadelphia Qua…          2
    ##  8 16895 FALSE            852 Bobby              16 Philadelphia Fly…          2
    ##  9 16896 FALSE            142 Ken                23 New Jersey Devils          2
    ## 10 16897 FALSE              0 Gerry               2 Montreal Wandere…          2
    ## # … with 17,199 more rows, and 24 more variables: gamesPlayed <int>,
    ## #   goals <int>, lastName <chr>, mostAssistsGameDates <chr>,
    ## #   mostAssistsOneGame <int>, mostAssistsOneSeason <int>,
    ## #   mostAssistsSeasonIds <chr>, mostGoalsGameDates <chr>,
    ## #   mostGoalsOneGame <int>, mostGoalsOneSeason <int>, mostGoalsSeasonIds <chr>,
    ## #   mostPenaltyMinutesOneSeason <int>, mostPenaltyMinutesSeasonIds <chr>,
    ## #   mostPointsGameDates <chr>, mostPointsOneGame <int>,
    ## #   mostPointsOneSeason <int>, mostPointsSeasonIds <chr>, penaltyMinutes <int>,
    ## #   playerId <int>, points <int>, positionCode <chr>, rookieGamesPlayed <int>,
…
    ## # A tibble: 1 x 13
    ##      id active captainHistory     coachingHistory     dateAwarded  directoryUrl 
    ##   <int> <lgl>  <chr>              <chr>               <chr>        <chr>        
    ## 1    20 TRUE   "<ul class=\"stri… "<ul class=\"strip… 1970-05-22T… https://www.…
    ## # … with 7 more variables: firstSeasonId <int>, generalManagerHistory <chr>,
    ## #   heroImageUrl <chr>, mostRecentTeamId <int>, retiredNumbersSummary <chr>,
    ## #   teamAbbrev <chr>, teamFullName <chr>

``` r
detail(NULL)
```

    ## # A tibble: 39 x 13
    ##       id active captainHistory     coachingHistory     dateAwarded directoryUrl 
    ##    <int> <lgl>  <chr>              <chr>               <chr>       <chr>        
    ##  1     1 TRUE   "<ul class=\"stri… "<ul class=\"strip… 1917-11-26… https://www.…
    ##  2     2 FALSE   <NA>               <NA>               1917-11-26… <NA>         
    ##  3     3 FALSE   <NA>               <NA>               1917-11-26… <NA>         
    ##  4     4 FALSE   <NA>               <NA>               1917-11-26… <NA>         
    ##  5     5 TRUE   "<ul class=\"stri… "<ul class=\"strip… 1917-11-26… https://www.…
    ##  6     6 TRUE   "<ul class=\"stri… "<ul class=\"strip… 1924-11-01… https://www.…
    ##  7     7 FALSE   <NA>               <NA>               1924-11-01… <NA>         
    ##  8     8 FALSE   <NA>               <NA>               1925-09-22… <NA>         
    ##  9     9 FALSE   <NA>               <NA>               1925-11-07… <NA>         
    ## 10    10 TRUE   "<ul class=\"stri… "<ul class=\"strip… 1926-05-15… https://www.…
    ## # … with 29 more rows, and 7 more variables: firstSeasonId <int>,
    ## #   generalManagerHistory <chr>, heroImageUrl <chr>, mostRecentTeamId <int>,
    ## #   retiredNumbersSummary <chr>, teamAbbrev <chr>, teamFullName <chr>
…
#try to use function stats
stats(NULL)
```

    ## # A tibble: 32 x 28
    ##       id name       link      abbreviation teamName locationName firstYearOfPlay
    ##    <int> <chr>      <chr>     <chr>        <chr>    <chr>        <chr>          
    ##  1     1 New Jerse… /api/v1/… NJD          Devils   New Jersey   1982           
    ##  2     2 New York … /api/v1/… NYI          Islande… New York     1972           
    ##  3     3 New York … /api/v1/… NYR          Rangers  New York     1926           
    ##  4     4 Philadelp… /api/v1/… PHI          Flyers   Philadelphia 1967           
    ##  5     5 Pittsburg… /api/v1/… PIT          Penguins Pittsburgh   1967           
    ##  6     6 Boston Br… /api/v1/… BOS          Bruins   Boston       1924           
    ##  7     7 Buffalo S… /api/v1/… BUF          Sabres   Buffalo      1970           
    ##  8     8 Montréal … /api/v1/… MTL          Canadie… Montréal     1909           
    ##  9     9 Ottawa Se… /api/v1/… OTT          Senators Ottawa       1990           
    ## 10    10 Toronto M… /api/v1/… TOR          Maple L… Toronto      1917           
    ## # … with 22 more rows, and 21 more variables: teamStats <list>,
    ## #   shortName <chr>, officialSiteUrl <chr>, franchiseId <int>, active <lgl>,
    ## #   venue.name <chr>, venue.link <chr>, venue.city <chr>, venue.id <int>,
    ## #   venue.timeZone.id <chr>, venue.timeZone.offset <int>,
    ## #   venue.timeZone.tz <chr>, division.id <int>, division.name <chr>,
    ## #   division.link <chr>, conference.id <int>, conference.name <chr>,
    ## #   conference.link <chr>, franchise.franchiseId <int>,
    ## #   franchise.teamName <chr>, franchise.link <chr>
…
#try to use function wrapper
wrapper("stats", NULL)
```

    ## # A tibble: 32 x 28
    ##       id name       link      abbreviation teamName locationName firstYearOfPlay
    ##    <int> <chr>      <chr>     <chr>        <chr>    <chr>        <chr>          
    ##  1     1 New Jerse… /api/v1/… NJD          Devils   New Jersey   1982           
    ##  2     2 New York … /api/v1/… NYI          Islande… New York     1972           
    ##  3     3 New York … /api/v1/… NYR          Rangers  New York     1926           
    ##  4     4 Philadelp… /api/v1/… PHI          Flyers   Philadelphia 1967           
    ##  5     5 Pittsburg… /api/v1/… PIT          Penguins Pittsburgh   1967           
    ##  6     6 Boston Br… /api/v1/… BOS          Bruins   Boston       1924           
    ##  7     7 Buffalo S… /api/v1/… BUF          Sabres   Buffalo      1970           
    ##  8     8 Montréal … /api/v1/… MTL          Canadie… Montréal     1909           
    ##  9     9 Ottawa Se… /api/v1/… OTT          Senators Ottawa       1990           
    ## 10    10 Toronto M… /api/v1/… TOR          Maple L… Toronto      1917           
    ## # … with 22 more rows, and 21 more variables: teamStats <list>,
    ## #   shortName <chr>, officialSiteUrl <chr>, franchiseId <int>, active <lgl>,
    ## #   venue.name <chr>, venue.link <chr>, venue.city <chr>, venue.id <int>,
    ## #   venue.timeZone.id <chr>, venue.timeZone.offset <int>,
    ## #   venue.timeZone.tz <chr>, division.id <int>, division.name <chr>,
    ## #   division.link <chr>, conference.id <int>, conference.name <chr>,
    ## #   conference.link <chr>, franchise.franchiseId <int>,
    ## #   franchise.teamName <chr>, franchise.link <chr>

``` r
wrapper("franchise", NULL)
```

    ## # A tibble: 39 x 8
    ##       id firstSeasonId fullName         lastSeasonId mostRecentTeamId teamAbbrev
    ##    <int>         <int> <chr>                   <int>            <int> <chr>     
    ##  1     1      19171918 Montréal Canadi…           NA                8 MTL       
    ##  2     2      19171918 Montreal Wander…     19171918               41 MWN       
    ##  3     3      19171918 St. Louis Eagles     19341935               45 SLE       
    ##  4     4      19191920 Hamilton Tigers      19241925               37 HAM       
    ##  5     5      19171918 Toronto Maple L…           NA               10 TOR       
    ##  6     6      19241925 Boston Bruins              NA                6 BOS       
    ##  7     7      19241925 Montreal Maroons     19371938               43 MMR       
    ##  8     8      19251926 Brooklyn Americ…     19411942               51 BRK       
    ##  9     9      19251926 Philadelphia Qu…     19301931               39 QUA       
    ## 10    10      19261927 New York Rangers           NA                3 NYR       
    ## # … with 29 more rows, and 2 more variables: teamCommonName <chr>,
    ## #   teamPlaceName <chr>

### Basic exploratory data analysis

#### Combine data from two endpoints

``` r
#create new data frame goalie_all
goalie_all <- goalie(NULL)[ , c(1:8)]
goalie_all <- goalie_all %>% mutate(Type = "goalie")
#view the data frame
goalie_all
```

    ## # A tibble: 1,078 x 9
    ##       id activePlayer firstName franchiseId franchiseName gameTypeId gamesPlayed
    ##    <int> <lgl>        <chr>           <int> <chr>              <int>       <int>
    ##  1   235 FALSE        Don                15 Dallas Stars           2         315
    ##  2   236 FALSE        Bob                28 Arizona Coyo…          2         281
    ##  3   237 FALSE        Tony               11 Chicago Blac…          2         873
    ##  4   238 FALSE        Grant              25 Edmonton Oil…          2         423
    ##  5   239 FALSE        Ron                16 Philadelphia…          2         489
    ##  6   240 FALSE        Curtis             18 St. Louis Bl…          2         280
    ##  7   241 FALSE        Olie               24 Washington C…          2         711
    ##  8   242 FALSE        Mike               18 St. Louis Bl…          2         347
    ##  9   243 FALSE        Kirk               20 Vancouver Ca…          2         516
    ## 10   244 FALSE        Gilles             13 Cleveland Ba…          2         250
    ## # … with 1,068 more rows, and 2 more variables: lastName <chr>, Type <chr>
…
