…
Functions to contact the NHL records API

Function to return franchise

#retrieve the info and convert to a list
get_franchise  <- GET("https://records.nhl.com/site/api/franchise")
franchise_cont <- content(get_franchise, "text", encoding = "UTF-8")
franchise_json <- fromJSON(franchise_cont, flatten = TRUE)
franchise_list <- as_tibble(franchise_json$data)
franchise_list

## # A tibble: 39 x 8
##       id firstSeasonId fullName             lastSeasonId mostRecentTeamId teamAbbrev teamCommonName teamPlaceName
##    <int>         <int> <chr>                       <int>            <int> <chr>      <chr>          <chr>        
##  1     1      19171918 Montréal Canadiens             NA                8 MTL        Canadiens      Montréal     
##  2     2      19171918 Montreal Wanderers       19171918               41 MWN        Wanderers      Montreal     
##  3     3      19171918 St. Louis Eagles         19341935               45 SLE        Eagles         St. Louis    
##  4     4      19191920 Hamilton Tigers          19241925               37 HAM        Tigers         Hamilton     
##  5     5      19171918 Toronto Maple Leafs            NA               10 TOR        Maple Leafs    Toronto      
##  6     6      19241925 Boston Bruins                  NA                6 BOS        Bruins         Boston       
##  7     7      19241925 Montreal Maroons         19371938               43 MMR        Maroons        Montreal     
##  8     8      19251926 Brooklyn Americans       19411942               51 BRK        Americans      Brooklyn     
##  9     9      19251926 Philadelphia Quakers     19301931               39 QUA        Quakers        Philadelphia 
## 10    10      19261927 New York Rangers               NA                3 NYR        Rangers        New York     
## # … with 29 more rows
…
## # A tibble: 1 x 8
##      id firstSeasonId fullName           lastSeasonId mostRecentTeamId teamAbbrev teamCommonName teamPlaceName
##   <int>         <int> <chr>                     <int>            <int> <chr>      <chr>          <chr>        
## 1     1      19171918 Montréal Canadiens           NA                8 MTL        Canadiens      Montréal

Function to return total stats for every franchise

#retrieve info and convert to a list
get_total  <- GET("https://records.nhl.com/site/api/franchise-team-totals")
total_cont <- content(get_total, "text", encoding = "UTF-8")
total_json <- fromJSON(total_cont, flatten = TRUE)
total_list <- as_tibble(total_json$data)
total_list

## # A tibble: 105 x 30
##       id activeFranchise firstSeasonId franchiseId gameTypeId gamesPlayed goalsAgainst goalsFor homeLosses homeOvertimeLosses homeTies homeWins
##    <int>           <int>         <int>       <int>      <int>       <int>        <int>    <int>      <int>              <int>    <int>    <int>
##  1     1               1      19821983          23          2        2993         8902     8792        525                 85       96      790
##  2     2               1      19821983          23          3         257          634      697         53                  0       NA       74
##  3     3               1      19721973          22          2        3788        11907    12045        678                 84      170      963
##  4     4               1      19721973          22          3         310          899      986         53                  1       NA       95
##  5     5               1      19261927          10          2        6560        20020    20041       1143                 76      448     1614
##  6     6               1      19261927          10          3         518         1447     1404        104                  0        1      137
##  7     7               1      19671968          16          3         449         1332     1335         97                  0       NA      135
##  8     8               1      19671968          16          2        4171        12255    13690        584                 93      193     1216
##  9     9               1      19671968          17          2        4171        14049    13874        683                 60      205     1138
## 10    10               1      19671968          17          3         391         1131     1190         85                  0       NA      113
## # … with 95 more rows, and 18 more variables: lastSeasonId <int>, losses <int>, overtimeLosses <int>, penaltyMinutes <int>, pointPctg <dbl>,
## #   points <int>, roadLosses <int>, roadOvertimeLosses <int>, roadTies <int>, roadWins <int>, shootoutLosses <int>, shootoutWins <int>,
## #   shutouts <int>, teamId <int>, teamName <chr>, ties <int>, triCode <chr>, wins <int>
…
Function to return season records

#create data frame lookup including name and id
base_url    <- paste0("https://records.nhl.com/site/api/franchise-season-records")
get_season  <- GET(base_url)
season_cont <- content(get_season, "text", encoding = "UTF-8")
season_json <- fromJSON(season_cont, flatten = TRUE)
season_list <- as_tibble(season_json$data)
lookup <- season_list[,c(14,15)]
lookup

## # A tibble: 39 x 2
##    franchiseId franchiseName      
##          <int> <chr>              
##  1          23 New Jersey Devils  
##  2          22 New York Islanders 
##  3          10 New York Rangers   
##  4          16 Philadelphia Flyers
##  5          17 Pittsburgh Penguins
##  6           6 Boston Bruins      
##  7          19 Buffalo Sabres     
##  8           1 Montréal Canadiens 
##  9          30 Ottawa Senators    
## 10           5 Toronto Maple Leafs
## # … with 29 more rows
…
Function to return goalie records

#create data frame lookup
base_url <- paste0("https://records.nhl.com/site/api/franchise-goalie-records")
get_goalie  <- GET(base_url)
goalie_cont <- content(get_goalie, "text", encoding = "UTF-8")
goalie_json <- fromJSON(goalie_cont, flatten = TRUE)
goalie_list <- as_tibble(goalie_json$data)
lookup <- goalie_list[ , c(4, 5)]
lookup

## # A tibble: 1,078 x 2
##    franchiseId franchiseName      
##          <int> <chr>              
##  1          15 Dallas Stars       
##  2          28 Arizona Coyotes    
##  3          11 Chicago Blackhawks 
##  4          25 Edmonton Oilers    
##  5          16 Philadelphia Flyers
##  6          18 St. Louis Blues    
##  7          24 Washington Capitals
##  8          18 St. Louis Blues    
##  9          20 Vancouver Canucks  
## 10          13 Cleveland Barons   
## # … with 1,068 more rows
…
#try to use function goalie
goalie(15)

## # A tibble: 37 x 29
##       id activePlayer firstName franchiseId franchiseName gameTypeId gamesPlayed lastName  losses mostGoalsAgainstDates       mostGoalsAgainst…
##    <int> <lgl>        <chr>           <int> <chr>              <int>       <int> <chr>      <int> <chr>                                   <int>
##  1   235 FALSE        Don                15 Dallas Stars           2         315 Beaupre      125 1983-10-07                                 10
##  2   344 FALSE        Ed                 15 Dallas Stars           2         307 Belfour       95 2001-01-30                                  8
##  3   351 FALSE        Allan              15 Dallas Stars           2          10 Bester         5 1996-02-02                                  5
##  4   354 FALSE        Daniel             15 Dallas Stars           2           5 Berthiau…      3 1990-02-04, 1990-01-31                      4
##  5   399 FALSE        Gary               15 Dallas Stars           2          51 Edwards       18 1979-03-11, 1978-11-11                      8
##  6   451 FALSE        Brian              15 Dallas Stars           2          26 Hayward       15 1991-01-02                                  6
##  7   488 FALSE        Jean               15 Dallas Stars           2           1 Levasseur      1 1980-02-24                                  7
##  8   503 FALSE        Markus             15 Dallas Stars           2           2 Mattsson       1 1983-01-15                                  6
##  9   513 FALSE        Roland             15 Dallas Stars           2          26 Melanson      11 1984-12-01                                  8
## 10   515 FALSE        Gilles             15 Dallas Stars           2         327 Meloche      117 1985-03-13, 1984-01-27, 19…                 8
## # … with 27 more rows, and 18 more variables: mostSavesDates <chr>, mostSavesOneGame <int>, mostShotsAgainstDates <chr>,
## #   mostShotsAgainstOneGame <int>, mostShutoutsOneSeason <int>, mostShutoutsSeasonIds <chr>, mostWinsOneSeason <int>, mostWinsSeasonIds <chr>,
## #   overtimeLosses <int>, playerId <int>, positionCode <chr>, rookieGamesPlayed <int>, rookieShutouts <int>, rookieWins <int>, seasons <int>,
## #   shutouts <int>, ties <int>, wins <int>

goalie("Dallas Stars")

## # A tibble: 37 x 29
##       id activePlayer firstName franchiseId franchiseName gameTypeId gamesPlayed lastName  losses mostGoalsAgainstDates       mostGoalsAgainst…
##    <int> <lgl>        <chr>           <int> <chr>              <int>       <int> <chr>      <int> <chr>                                   <int>
##  1   235 FALSE        Don                15 Dallas Stars           2         315 Beaupre      125 1983-10-07                                 10
##  2   344 FALSE        Ed                 15 Dallas Stars           2         307 Belfour       95 2001-01-30                                  8
##  3   351 FALSE        Allan              15 Dallas Stars           2          10 Bester         5 1996-02-02                                  5
##  4   354 FALSE        Daniel             15 Dallas Stars           2           5 Berthiau…      3 1990-02-04, 1990-01-31                      4
##  5   399 FALSE        Gary               15 Dallas Stars           2          51 Edwards       18 1979-03-11, 1978-11-11                      8
##  6   451 FALSE        Brian              15 Dallas Stars           2          26 Hayward       15 1991-01-02                                  6
##  7   488 FALSE        Jean               15 Dallas Stars           2           1 Levasseur      1 1980-02-24                                  7
##  8   503 FALSE        Markus             15 Dallas Stars           2           2 Mattsson       1 1983-01-15                                  6
##  9   513 FALSE        Roland             15 Dallas Stars           2          26 Melanson      11 1984-12-01                                  8
## 10   515 FALSE        Gilles             15 Dallas Stars           2         327 Meloche      117 1985-03-13, 1984-01-27, 19…                 8
## # … with 27 more rows, and 18 more variables: mostSavesDates <chr>, mostSavesOneGame <int>, mostShotsAgainstDates <chr>,
## #   mostShotsAgainstOneGame <int>, mostShutoutsOneSeason <int>, mostShutoutsSeasonIds <chr>, mostWinsOneSeason <int>, mostWinsSeasonIds <chr>,
## #   overtimeLosses <int>, playerId <int>, positionCode <chr>, rookieGamesPlayed <int>, rookieShutouts <int>, rookieWins <int>, seasons <int>,
## #   shutouts <int>, ties <int>, wins <int>

Function to return skater records

#create data frame lookup
base_url <- paste0("https://records.nhl.com/site/api/franchise-skater-records")
get_skater  <- GET(base_url)
skater_cont <- content(get_skater, "text", encoding = "UTF-8")
skater_json <- fromJSON(skater_cont, flatten = TRUE)
skater_list <- as_tibble(skater_json$data)
lookup <- skater_list[ , c(5, 6)]
lookup

## # A tibble: 17,209 x 2
##    franchiseId franchiseName       
##          <int> <chr>               
##  1           5 Toronto Maple Leafs 
##  2           2 Montreal Wanderers  
##  3           6 Boston Bruins       
##  4           1 Montréal Canadiens  
##  5           6 Boston Bruins       
##  6           9 Philadelphia Quakers
##  7           9 Philadelphia Quakers
##  8          16 Philadelphia Flyers 
##  9          23 New Jersey Devils   
## 10           2 Montreal Wanderers  
## # … with 17,199 more rows
…
#try to use function skater
skater(1)

## # A tibble: 800 x 31
##       id activePlayer assists firstName franchiseId franchiseName  gameTypeId gamesPlayed goals lastName mostAssistsGameDates  mostAssistsOneG…
##    <int> <lgl>          <int> <chr>           <int> <chr>               <int>       <int> <int> <chr>    <chr>                            <int>
##  1 17199 FALSE              0 Reg                 1 Montréal Cana…          2           3     0 Abbott   1952-10-09, 1952-10-…                0
##  2 17223 FALSE              2 Art                 1 Montréal Cana…          2          11     0 Alexand… 1932-03-08, 1932-03-…                1
##  3 17272 FALSE              0 Dave                1 Montréal Cana…          2           3     0 Allison  1983-10-06, 1983-10-…                0
##  4 17351 FALSE              0 Ossie               1 Montréal Cana…          2           2     0 Asmunds… 1937-11-09, 1937-11-…                0
##  5 17389 FALSE              0 Ron                 1 Montréal Cana…          2           6     0 Andruff  1974-10-09, 1974-10-…                0
##  6 17440 FALSE              0 Jimmy               1 Montréal Cana…          2           2     0 Bartlett 1954-10-07, 1954-10-…                0
##  7 17484 FALSE              0 Max                 1 Montréal Cana…          2           1     0 Bennett  1935-11-12, 1935-11-…                0
##  8 17508 FALSE              0 Bob                 1 Montréal Cana…          2           2     0 Berry    1968-10-12, 1968-10-…                0
##  9 17544 FALSE              0 Garry               1 Montréal Cana…          2           1     0 Blaine   1954-10-07, 1954-10-…                0
## 10 17623 FALSE              0 Conrad              1 Montréal Cana…          2           6     0 Bourcier 1935-11-12, 1935-11-…                0
## # … with 790 more rows, and 19 more variables: mostAssistsOneSeason <int>, mostAssistsSeasonIds <chr>, mostGoalsGameDates <chr>,
## #   mostGoalsOneGame <int>, mostGoalsOneSeason <int>, mostGoalsSeasonIds <chr>, mostPenaltyMinutesOneSeason <int>,
## #   mostPenaltyMinutesSeasonIds <chr>, mostPointsGameDates <chr>, mostPointsOneGame <int>, mostPointsOneSeason <int>,
## #   mostPointsSeasonIds <chr>, penaltyMinutes <int>, playerId <int>, points <int>, positionCode <chr>, rookieGamesPlayed <int>,
## #   rookiePoints <int>, seasons <int>

skater("Washington Capitals")

## # A tibble: 521 x 31
##       id activePlayer assists firstName franchiseId franchiseName  gameTypeId gamesPlayed goals lastName mostAssistsGameDates  mostAssistsOneG…
##    <int> <lgl>          <int> <chr>           <int> <chr>               <int>       <int> <int> <chr>    <chr>                            <int>
##  1 17250 FALSE              0 Keith              24 Washington Ca…          2           6     0 Acton    1993-10-06, 1993-10-…                0
##  2 17280 FALSE              1 Murray             24 Washington Ca…          2          40     0 Anderson 1975-02-22                           1
##  3 17541 FALSE              2 Chuck              24 Washington Ca…          2          13     0 Arnason  1979-03-21, 1979-04-…                1
##  4 17705 FALSE              0 Bob                24 Washington Ca…          2           2     0 Babcock  1990-10-10, 1990-10-…                0
##  5 17941 FALSE              0 Yves               24 Washington Ca…          2          11     0 Beaudoin 1985-10-10, 1985-10-…                0
##  6 17991 FALSE              1 Benoit             24 Washington Ca…          2           9     0 Hogue    2002-03-26                           1
##  7 18313 FALSE              6 Jeff               24 Washington Ca…          2           9     0 Brown    1998-03-28                           2
##  8 18520 FALSE              0 Eric               24 Washington Ca…          2           2     0 Calder   1981-10-07, 1981-10-…                0
##  9 18544 FALSE              0 Tony               24 Washington Ca…          2           3     0 Camazzo… 1981-10-07, 1981-10-…                0
## 10 18733 FALSE              2 Tom                24 Washington Ca…          2          17     0 Chorske  1998-11-07, 1999-03-…                1
## # … with 511 more rows, and 19 more variables: mostAssistsOneSeason <int>, mostAssistsSeasonIds <chr>, mostGoalsGameDates <chr>,
## #   mostGoalsOneGame <int>, mostGoalsOneSeason <int>, mostGoalsSeasonIds <chr>, mostPenaltyMinutesOneSeason <int>,
## #   mostPenaltyMinutesSeasonIds <chr>, mostPointsGameDates <chr>, mostPointsOneGame <int>, mostPointsOneSeason <int>,
## #   mostPointsSeasonIds <chr>, penaltyMinutes <int>, playerId <int>, points <int>, positionCode <chr>, rookieGamesPlayed <int>,
## #   rookiePoints <int>, seasons <int>

Function to return detail records

#create data frame lookup
base_url <- paste0("https://records.nhl.com/site/api/franchise-detail?")
get_detail  <- GET(base_url)
detail_cont <- content(get_detail, "text", encoding = "UTF-8")
detail_json <- fromJSON(detail_cont, flatten = TRUE)
detail_list <- as_tibble(detail_json$data)
lookup <- detail_list[, c(10,13)]
lookup

## # A tibble: 39 x 2
##    mostRecentTeamId teamFullName        
##               <int> <chr>               
##  1                8 Montréal Canadiens  
##  2               41 Montreal Wanderers  
##  3               45 St. Louis Eagles    
##  4               37 Hamilton Tigers     
##  5               10 Toronto Maple Leafs 
##  6                6 Boston Bruins       
##  7               43 Montreal Maroons    
##  8               51 Brooklyn Americans  
##  9               39 Philadelphia Quakers
## 10                3 New York Rangers    
## # … with 29 more rows
…
Function to contact the NHL stats API

#create data frame lookup
full_url <- paste0("https://statsapi.web.nhl.com/api/v1/teams", "?expand=team.stats")
get_stats  <- GET(full_url)
stats_cont <- content(get_stats, "text", encoding = "UTF-8")
stats_json <- fromJSON(stats_cont, flatten = TRUE)
stats_list <- as_tibble(stats_json$teams)
lookup <- stats_list[, c(1:2)]
lookup <- rename(lookup, teamName = name)
lookup

## # A tibble: 32 x 2
##       id teamName           
##    <int> <chr>              
##  1     1 New Jersey Devils  
##  2     2 New York Islanders 
##  3     3 New York Rangers   
##  4     4 Philadelphia Flyers
##  5     5 Pittsburgh Penguins
##  6     6 Boston Bruins      
##  7     7 Buffalo Sabres     
##  8     8 Montréal Canadiens 
##  9     9 Ottawa Senators    
## 10    10 Toronto Maple Leafs
## # … with 22 more rows
…
Basic exploratory data analysis

Combine data from two endpoints

#create new data frame goalie_all
goalie_all <- goalie(NULL)[ , c(1:8)]
goalie_all <- goalie_all %>% mutate(Type = "goalie")
#view the data frame
goalie_all

## # A tibble: 1,078 x 9
##       id activePlayer firstName franchiseId franchiseName       gameTypeId gamesPlayed lastName Type  
##    <int> <lgl>        <chr>           <int> <chr>                    <int>       <int> <chr>    <chr> 
##  1   235 FALSE        Don                15 Dallas Stars                 2         315 Beaupre  goalie
##  2   236 FALSE        Bob                28 Arizona Coyotes              2         281 Essensa  goalie
##  3   237 FALSE        Tony               11 Chicago Blackhawks           2         873 Esposito goalie
##  4   238 FALSE        Grant              25 Edmonton Oilers              2         423 Fuhr     goalie
##  5   239 FALSE        Ron                16 Philadelphia Flyers          2         489 Hextall  goalie
##  6   240 FALSE        Curtis             18 St. Louis Blues              2         280 Joseph   goalie
##  7   241 FALSE        Olie               24 Washington Capitals          2         711 Kolzig   goalie
##  8   242 FALSE        Mike               18 St. Louis Blues              2         347 Liut     goalie
##  9   243 FALSE        Kirk               20 Vancouver Canucks            2         516 McLean   goalie
## 10   244 FALSE        Gilles             13 Cleveland Barons             2         250 Meloche  goalie
## # … with 1,068 more rows
…
